Quantifying uncertainty with intervals
…
.pull-right[

```r
pred_df
```

```
## # A tibble: 100 × 4
##   height predicted    ul    ll
##    <dbl>     <dbl> <dbl> <dbl>
## 1   137.      33.6  34.7  32.5
## 2   137.      33.9  35.0  32.8
## 3   137.      34.2  35.2  33.1
## 4   138.      34.4  35.5  33.4
## 5   138.      34.7  35.7  33.7
## 6   139.      35.0  36.0  34.0
## # … with 94 more rows
```
…
