Linear models with multiple predictors
…
```r
vs <- vizsearch %>% 
  filter(targ_absent==1)
```

---

## Visual search data

```r
vs
```

```
## # A tibble: 72 × 5
##   subject cond_conj targ_absent setsize    rt
##   <chr>       <dbl>       <dbl>   <dbl> <dbl>
## 1 ag              0           1       3  479.
## 2 ag              0           1       6  495.
## 3 ag              0           1      12  483.
## 4 ag              0           1      18  483.
## 5 ak              0           1       3  415.
## 6 ak              0           1       6  413.
## # … with 66 more rows
```
…
$$\text{interaction} = \text{variable_1} * \text{variable_2} $$
---

## Creating interaction variables manually

```r
d <- vs %>% 
  mutate(setsize_cond = setsize * cond_conj)
```

.pull-left-narrow[

```
## # A tibble: 8 × 3
##   cond_conj setsize setsize_cond
##       <dbl>   <dbl>        <dbl>
## 1         0       3            0
## 2         0       6            0
## 3         0      12            0
## 4         0      18            0
## 5         1       3            3
## 6         1       6            6
## # … with 2 more rows
```
…
