Prediction w/ tidyModels
…
```{r}
#| label: taxi-train-test
taxi_train <- training(taxi_split)
taxi_test <- testing(taxi_split)
```

The training set

```{r}
#| label: taxi-train
taxi_train
```

#> # A tibble: 7,500 × 7
#>    tip   distance company                   local dow   month  hour
#>    <fct>    <dbl> <fct>                     <fct> <fct> <fct> <int>
#>  1 yes       0.7  Taxi Affiliation Services yes   Tue   Mar      18
#>  2 yes       0.99 Sun Taxi                  yes   Tue   Jan       8
#>  3 yes       1.78 other                     no    Sat   Mar      22
#>  4 yes       0    Taxi Affiliation Services yes   Wed   Apr      15
#>  5 yes       0    Taxi Affiliation Services no    Sun   Jan      21
#>  6 yes       2.3  other                     no    Sat   Apr      21
#>  7 yes       6.35 Sun Taxi                  no    Wed   Mar      16
#>  8 yes       2.79 other                     no    Sun   Feb      14
#>  9 yes      16.6  other                     no    Sun   Apr      18
#> 10 yes       0.02 Chicago Independents      yes   Sun   Apr      15
#> # ℹ 7,490 more rows
…
taxi_test is our test dataset that we held out during training.

We’ll use taxi_test to evaluate how well tree_fit performs on new, unseen data.

How do you understand your new tree_fit model?

Predict with your model

What happens when you run predict(logi_fit, new_data = taxi_test)

```{r}
predict(tree_fit, new_data = taxi_test)
```

#> # A tibble: 2,000 × 1
#>    .pred_class
#>    <fct>      
#>  1 yes        
#>  2 yes        
#>  3 yes        
#>  4 yes        
#>  5 yes        
#>  6 yes        
#>  7 yes        
#>  8 yes        
#>  9 yes        
#> 10 yes        
#> # ℹ 1,990 more rows

```{r}
augment(tree_fit, new_data = taxi_test)
```

#> # A tibble: 2,000 × 10
#>    .pred_class .pred_yes .pred_no tip   distance company local dow   month  hour
#>    <fct>           <dbl>    <dbl> <fct>    <dbl> <fct>   <fct> <fct> <fct> <int>
#>  1 yes             0.967   0.0333 yes      20.7  Chicag… no    Mon   Apr       8
#>  2 yes             0.917   0.0830 yes       1.47 City S… no    Tue   Mar      14
#>  3 yes             0.917   0.0830 yes       1    Taxi A… no    Mon   Feb      18
#>  4 yes             0.917   0.0830 yes       1.91 Flash … no    Wed   Apr      15
#>  5 yes             0.967   0.0333 yes      17.2  City S… no    Mon   Apr       9
#>  6 yes             0.967   0.0333 yes      17.8  City S… no    Mon   Mar       9
#>  7 yes             0.917   0.0830 yes       0.53 Taxica… yes   Wed   Apr       8
#>  8 yes             0.917   0.0830 yes       1.77 other   no    Thu   Apr      15
#>  9 yes             0.967   0.0333 yes      18.6  Flash … no    Thu   Apr      12
#> 10 yes             0.917   0.0830 no        1.13 other   no    Sat   Feb      14
#> # ℹ 1,990 more rows
…
PART 4: Metrics for model performance

Warning

In the following we will be working on evaluation metrics based on the training set data, but keep in mind that you also need to run the metrics on the test data. If you fail to do so, it can give a misleading impression of model performance. Hopefully this will be clearer soon.

```{r taxi-fit-augment}
augment(tree_fit, new_data = taxi_train) %>%
  relocate(tip, .pred_class, .pred_yes, .pred_no)
```

#> # A tibble: 8,000 × 10
#>    tip   .pred_class .pred_yes .pred_no distance company local dow   month  hour
#>    <fct> <fct>           <dbl>    <dbl>    <dbl> <fct>   <fct> <fct> <fct> <int>
#>  1 yes   yes             0.967   0.0333    17.2  Chicag… no    Thu   Feb      16
#>  2 yes   yes             0.917   0.0830     0.88 City S… yes   Thu   Mar       8
#>  3 yes   yes             0.967   0.0333    18.1  other   no    Mon   Feb      18
#>  4 yes   yes             0.858   0.142     12.2  Chicag… no    Sun   Mar      21
#>  5 yes   yes             0.917   0.0830     0.94 Sun Ta… yes   Sat   Apr      23
#>  6 yes   yes             0.967   0.0333    17.5  Flash … no    Fri   Mar      12
#>  7 yes   yes             0.967   0.0333    17.7  other   no    Sun   Jan       6
#>  8 yes   yes             0.917   0.0830     1.85 Taxica… no    Fri   Apr      12
#>  9 yes   yes             0.917   0.0830     0.53 Sun Ta… no    Tue   Mar      18
#> 10 yes   yes             0.858   0.142      6.65 Taxica… no    Sun   Apr      11
#> # ℹ 7,990 more rows
…
Is our model doing well on training but poorly on new data?

Here’s our model performance on the training data

```{r augment-train}
tree_fit %>%
  augment(taxi_train)
```

#> # A tibble: 8,000 × 10
#>    .pred_class .pred_yes .pred_no tip   distance company local dow   month  hour
#>    <fct>           <dbl>    <dbl> <fct>    <dbl> <fct>   <fct> <fct> <fct> <int>
#>  1 yes             0.967   0.0333 yes      17.2  Chicag… no    Thu   Feb      16
#>  2 yes             0.917   0.0830 yes       0.88 City S… yes   Thu   Mar       8
#>  3 yes             0.967   0.0333 yes      18.1  other   no    Mon   Feb      18
#>  4 yes             0.858   0.142  yes      12.2  Chicag… no    Sun   Mar      21
#>  5 yes             0.917   0.0830 yes       0.94 Sun Ta… yes   Sat   Apr      23
#>  6 yes             0.967   0.0333 yes      17.5  Flash … no    Fri   Mar      12
#>  7 yes             0.967   0.0333 yes      17.7  other   no    Sun   Jan       6
#>  8 yes             0.917   0.0830 yes       1.85 Taxica… no    Fri   Apr      12
#>  9 yes             0.917   0.0830 yes       0.53 Sun Ta… no    Tue   Mar      18
#> 10 yes             0.858   0.142  yes       6.65 Taxica… no    Sun   Apr      11
#> # ℹ 7,990 more rows
…
After running the bootstrap process many times, you’ll end up with a distribution of performance metrics (like accuracy or AUC).

Handling Small Datasets: It is particularly useful when dealing with small datasets where you might not be able to afford to set aside a portion of the data as a test set.

Uncertainty Estimates: It provides a way to create confidence intervals for various performance metrics, giving a sense of how uncertain those metrics are.

```{r bootstraps}
set.seed(3214)
bootstraps(taxi_train)
```

#> # Bootstrap sampling 
#> # A tibble: 25 × 2
#>    splits              id         
#>    <list>              <chr>      
#>  1 <split [8000/2902]> Bootstrap01
#>  2 <split [8000/2916]> Bootstrap02
#>  3 <split [8000/3004]> Bootstrap03
#>  4 <split [8000/2979]> Bootstrap04
#>  5 <split [8000/2961]> Bootstrap05
#>  6 <split [8000/2962]> Bootstrap06
#>  7 <split [8000/3026]> Bootstrap07
#>  8 <split [8000/2926]> Bootstrap08
#>  9 <split [8000/2972]> Bootstrap09
#> 10 <split [8000/2972]> Bootstrap10
#> # ℹ 15 more rows
…
