Tidy data
…
???
Ok, moving on here is some data from the US Census. Yowzers. So, this format is pretty typical of census data where what is released is aggregated information about a population instead of individual-level information. So, what's the  problem here for a tidy dataset? I mean, it looks like we have rows and columns we can start manipulating. But, unfortunately, what we have here is a summary table where the columns do not correspond to unique variables and the rows do not capture "raw data" at the level of some observation. Thus, this is a lesson in distinguishing between a raw dataset (which this is not) versus a table of summary statistics. 

---

## Displaying vs. summarising data

.panelset[

.panel[.panel-name[Output]

.pull-left[

```
## # A tibble: 87 × 3
##   name           height  mass
##   <chr>           <int> <dbl>
## 1 Luke Skywalker    172    77
## 2 C-3PO             167    75
## 3 R2-D2              96    32
## 4 Darth Vader       202   136
## 5 Leia Organa       150    49
## 6 Owen Lars         178   120
## # … with 81 more rows
```
…
