Iteration
…
# White House Speeches

---

## 🏁 Start with

<img src="img/wh-speeches.png" width="40%" style="display: block; margin: auto;" />

---

## End with 🛑

```
## # A tibble: 30 × 5
##    title                           date       locat…¹ text  url  
##    <chr>                           <date>     <chr>   <lis> <chr>
##  1 Remarks by Vice President Harr… 2023-02-18 "Comme… <chr> http…
##  2 Remarks by Vice President Harr… 2023-02-18 "\nCom… <chr> http…
##  3 Remarks by Vice President Harr… 2023-02-18 "Hotel… <chr> http…
##  4 Remarks by Vice President Harr… 2023-02-17 "Bayer… <chr> http…
##  5 Remarks by President Biden at … 2023-02-16 "East … <chr> http…
##  6 Remarks by President Biden on … 2023-02-16 "South… <chr> http…
##  7 Remarks by President Biden on … 2023-02-15 "IBEW … <chr> http…
##  8 Excerpt from Remarks as Prepar… 2023-02-15 "\n###" <chr> http…
##  9 Remarks by President Biden at … 2023-02-14 "Washi… <chr> http…
## 10 Remarks as Prepared for Delive… 2023-02-13 "Mesa,… <chr> http…
## # … with 20 more rows, and abbreviated variable name ¹​location
```
…
```r
wh_speeches <- map_dfr(wh_speech_urls, scrape_speech)
```

---

```r
wh_speeches %>%
  print(n = 15)
```

```
## # A tibble: 30 × 5
##    title                           date       locat…¹ text  url  
##    <chr>                           <date>     <chr>   <lis> <chr>
##  1 Remarks by Vice President Harr… 2023-02-18 "Comme… <chr> http…
##  2 Remarks by Vice President Harr… 2023-02-18 "\nCom… <chr> http…
##  3 Remarks by Vice President Harr… 2023-02-18 "Hotel… <chr> http…
##  4 Remarks by Vice President Harr… 2023-02-17 "Bayer… <chr> http…
##  5 Remarks by President Biden at … 2023-02-16 "East … <chr> http…
##  6 Remarks by President Biden on … 2023-02-16 "South… <chr> http…
##  7 Remarks by President Biden on … 2023-02-15 "IBEW … <chr> http…
##  8 Excerpt from Remarks as Prepar… 2023-02-15 "\n###" <chr> http…
##  9 Remarks by President Biden at … 2023-02-14 "Washi… <chr> http…
## 10 Remarks as Prepared for Delive… 2023-02-13 "Mesa,… <chr> http…
## 11 Remarks by President Biden at … 2023-02-11 "State… <chr> http…
## 12 Remarks as Prepared for Delive… 2023-02-11 "Decat… <chr> http…
## 13 Remarks by President Biden and… 2023-02-10 " \nOv… <chr> http…
## 14 Remarks by President Biden and… 2023-02-10 "East … <chr> http…
## 15 Remarks by President Biden on … 2023-02-09 "Unive… <chr> http…
## # … with 15 more rows, and abbreviated variable name ¹​location
```
…
