Tidying data
…
???
To wrap things up and to examine a realistic case study where pivoting data might be helpful, we're going to look at data about the approval ratings of Donald Trump. By focusing on Trump I'm not trying to get political. This is just a really great set of publicly available data from the 538 blog. This blog has all kinds of interesting data, on politics, on sports, on all sorts of things. They also have data on a lot of politicians. I focus on Trump because the data for him is the most complete while also being the most recent. What 538 has done is they've looked at all possible reputable polls as they've come out during Trump's presidency, built models to aggregate information from the polls, and come up with some percentage from the responses of the polls that indicate disapproval and approval. 

From the results, we can generate a visualization much like the one here, which is referenced on the 538 webpage. The orange line is a disapproval rate over time during Trump's entire presidency and the green line is the approval rate during his entire presidency. You can see that there's a drop down menu on the website that says allowed you to revisualize the plot based on polls from "all adults" or, not shown here, polls from just "likely voters." 

---

## Data

```r
trump
```

```
## # A tibble: 2,702 × 4
##    subgroup date       approval disapproval
##    <chr>    <date>        <dbl>       <dbl>
##  1 Voters   2020-10-04     44.7        52.2
##  2 Adults   2020-10-04     43.2        52.6
##  3 Adults   2020-10-03     43.2        52.6
##  4 Voters   2020-10-03     45.0        51.7
##  5 Adults   2020-10-02     43.3        52.4
##  6 Voters   2020-10-02     44.5        52.1
##  7 Voters   2020-10-01     44.1        52.8
##  8 Adults   2020-10-01     42.7        53.3
##  9 Adults   2020-09-30     42.2        53.7
## 10 Voters   2020-09-30     44.2        52.7
## # … with 2,692 more rows
```
…
