Working with a single data frame
…
???
We're going to first look at the verbs, i.e., functions, of "select" "arrange" and "slice" 

---

## `select` to keep variables

```r
hotels %>%
* select(hotel, lead_time)
```

```
## # A tibble: 119,390 × 2
##   hotel        lead_time
##   <chr>            <dbl>
## 1 Resort Hotel       342
## 2 Resort Hotel       737
## 3 Resort Hotel         7
## 4 Resort Hotel        13
## 5 Resort Hotel        14
## 6 Resort Hotel        14
## # … with 119,384 more rows
```
…
---

## `select` to exclude variables

.small[

```r
hotels %>%
* select(-agent)
```

```
## # A tibble: 119,390 × 31
##   hotel   is_canceled lead_time arrival_date_ye… arrival_date_mo…
##   <chr>         <dbl>     <dbl>            <dbl> <chr>           
## 1 Resort…           0       342             2015 July            
## 2 Resort…           0       737             2015 July            
## 3 Resort…           0         7             2015 July            
## 4 Resort…           0        13             2015 July            
## 5 Resort…           0        14             2015 July            
## 6 Resort…           0        14             2015 July            
## # … with 119,384 more rows, and 26 more variables:
## #   arrival_date_week_number <dbl>,
## #   arrival_date_day_of_month <dbl>,
## #   stays_in_weekend_nights <dbl>, stays_in_week_nights <dbl>,
## #   adults <dbl>, children <dbl>, babies <dbl>, meal <chr>,
## #   country <chr>, market_segment <chr>,
## #   distribution_channel <chr>, is_repeated_guest <dbl>, …
```
…
???
Or we can also use select to exclude variables. One of the variables in the dataset was agent, which represents type of agent that did the booking. And so we can say give me all of the columns except for agent. To do that we use the minus sign, and so you can see that the number of columns is now reduced to 31 from 32, which was the full data set. 

---

## `select` a range of variables

```r
hotels %>%
* select(hotel:arrival_date_month)
```

```
## # A tibble: 119,390 × 5
##   hotel   is_canceled lead_time arrival_date_ye… arrival_date_mo…
##   <chr>         <dbl>     <dbl>            <dbl> <chr>           
## 1 Resort…           0       342             2015 July            
## 2 Resort…           0       737             2015 July            
## 3 Resort…           0         7             2015 July            
## 4 Resort…           0        13             2015 July            
## 5 Resort…           0        14             2015 July            
## 6 Resort…           0        14             2015 July            
## # … with 119,384 more rows
```

???
We can also select a range of variables. This requires that you know the order in which the variables in your data set appear because, with the colon operator, what we're basically saying is give me all of the variables between the hotel variable and the arrival date month variable. These so happen to be the first five columns of our data set so that's what we're seeing as a result here. 

---

## `select` variables with certain characteristics

```r
hotels %>%
* select(starts_with("arrival"))
```

```
## # A tibble: 119,390 × 4
##   arrival_date_year arrival_date_month arrival_date_week_number
##               <dbl> <chr>                                 <dbl>
## 1              2015 July                                     27
## 2              2015 July                                     27
## 3              2015 July                                     27
## 4              2015 July                                     27
## 5              2015 July                                     27
## 6              2015 July                                     27
## # … with 119,384 more rows, and 1 more variable:
## #   arrival_date_day_of_month <dbl>
```

???
But selecting in this way might not be a useful way of selecting things because it requires that you know the order in which your variables appear in your data frame. It also assumes they were placed in some sensible way and that may not always be true, especially if you were not the person who prepared the data set. Something that sometimes works better is to select variables with certain characteristics in their names. So, here, what we're saying is select all of the variables that start with the word arrival. So this would give us four variables: "arrival date year" "arrival date month" "arrival date week" "arrival date day of month"

---

## `select` variables with certain characteristics

```r
hotels %>%
* select(ends_with("type"))
```

```
## # A tibble: 119,390 × 4
##   reserved_room_type assigned_room_ty… deposit_type customer_type
##   <chr>              <chr>             <chr>        <chr>        
## 1 C                  C                 No Deposit   Transient    
## 2 C                  C                 No Deposit   Transient    
## 3 A                  C                 No Deposit   Transient    
## 4 A                  A                 No Deposit   Transient    
## 5 A                  A                 No Deposit   Transient    
## 6 A                  A                 No Deposit   Transient    
## # … with 119,384 more rows
```
…
---

## `arrange` in ascending / descending order

.pull-left[

```r
hotels %>%
  select(adults, children, babies) %>%
* arrange(babies)
```

```
## # A tibble: 119,390 × 3
##   adults children babies
##    <dbl>    <dbl>  <dbl>
## 1      2        0      0
## 2      2        0      0
## 3      1        0      0
## 4      1        0      0
## 5      2        0      0
## 6      2        0      0
## # … with 119,384 more rows
```
]
.pull-right[

```r
hotels %>%
  select(adults, children, babies) %>%
* arrange(desc(babies))
```

```
## # A tibble: 119,390 × 3
##   adults children babies
##    <dbl>    <dbl>  <dbl>
## 1      2        0     10
## 2      1        0      9
## 3      2        0      2
## 4      2        0      2
## 5      2        0      2
## 6      2        0      2
## # … with 119,384 more rows
```
…
---

## `filter` to select a subset of rows

.midi[

```r
# bookings in City Hotels
hotels %>%
* filter(hotel == "City Hotel")
```

```
## # A tibble: 79,330 × 32
##   hotel   is_canceled lead_time arrival_date_ye… arrival_date_mo…
##   <chr>         <dbl>     <dbl>            <dbl> <chr>           
## 1 City H…           0         6             2015 July            
## 2 City H…           1        88             2015 July            
## 3 City H…           1        65             2015 July            
## 4 City H…           1        92             2015 July            
## 5 City H…           1       100             2015 July            
## 6 City H…           1        79             2015 July            
## # … with 79,324 more rows, and 27 more variables:
## #   arrival_date_week_number <dbl>,
## #   arrival_date_day_of_month <dbl>,
## #   stays_in_weekend_nights <dbl>, stays_in_week_nights <dbl>,
## #   adults <dbl>, children <dbl>, babies <dbl>, meal <chr>,
## #   country <chr>, market_segment <chr>,
## #   distribution_channel <chr>, is_repeated_guest <dbl>, …
```
…
---

## `filter` for many conditions at once

```r
hotels %>%
  filter( 
*   adults == 0,
*   children >= 1
    ) %>% 
  select(adults, babies, children)
```

```
## # A tibble: 223 × 3
##   adults babies children
##    <dbl>  <dbl>    <dbl>
## 1      0      0        3
## 2      0      0        2
## 3      0      0        2
## 4      0      0        2
## 5      0      0        2
## 6      0      0        3
## # … with 217 more rows
```
…
## `filter` for more complex conditions

```r
# bookings with no adults and some children or babies in the room
hotels %>%
  filter( 
    adults == 0,     
*   children >= 1 | babies >= 1     # | means or
    ) %>%
  select(adults, babies, children)
```

```
## # A tibble: 223 × 3
##   adults babies children
##    <dbl>  <dbl>    <dbl>
## 1      0      0        3
## 2      0      0        2
## 3      0      0        2
## 4      0      0        2
## 5      0      0        2
## 6      0      0        3
## # … with 217 more rows
```
…
# `mutate`

---

## `mutate` to add a new variable

```r
hotels %>%
* mutate(little_ones = children + babies) %>%
  select(children, babies, little_ones) %>%
  arrange(desc(little_ones))
```

```
## # A tibble: 119,390 × 3
##   children babies little_ones
##      <dbl>  <dbl>       <dbl>
## 1       10      0          10
## 2        0     10          10
## 3        0      9           9
## 4        2      1           3
## 5        2      1           3
## 6        2      1           3
## # … with 119,384 more rows
```
…
```r
# Resort Hotel
hotels %>%
  mutate(little_ones = children + babies) %>%
  filter(
    little_ones >= 1,
    hotel == "Resort Hotel"
    ) %>%
  select(hotel, little_ones)
```

```
## # A tibble: 3,929 × 2
##   hotel        little_ones
##   <chr>              <dbl>
## 1 Resort Hotel           1
## 2 Resort Hotel           2
## 3 Resort Hotel           2
## 4 Resort Hotel           2
## 5 Resort Hotel           1
## 6 Resort Hotel           1
## # … with 3,923 more rows
```
…
```r
# City Hotel
hotels %>%
  mutate(little_ones = children + babies) %>%
  filter(
    little_ones >= 1,
    hotel == "City Hotel"
    )  %>%
  select(hotel, little_ones)
```

```
## # A tibble: 5,403 × 2
##   hotel      little_ones
##   <chr>            <dbl>
## 1 City Hotel           1
## 2 City Hotel           1
## 3 City Hotel           2
## 4 City Hotel           1
## 5 City Hotel           1
## 6 City Hotel           1
## # … with 5,397 more rows
```
…
