mod-06-song-lyrics
…
  # get artist name
  artist <- str_remove(x, "https://genius.com/artists/")
  
  # add the artist name to the tibble that we just created
  lyrics_all_songs_for_one_artist <- lyrics_all_songs_for_one_artist %>% add_column(artist)
  
}

Now we “map” the URLs of artists’ pages to get_all_artists_and_lyrics(x) using the “map_dfr” function

final_df <- map_dfr(urls_of_artists[1:4], get_all_artists_and_lyrics)

final_df

# A tibble: 40 × 3
   song_title           lyric                                             artist
   <chr>                <chr>                                             <chr> 
 1 Drunk in Love        "[Verse 1: Beyoncé] I've been drinkin', I've bee… beyon…
 2 Formation            "[Intro: Messy Mya] What happened at the New Wil… beyon…
 3 Halo                 "Remember those walls I built?\nWell, baby, they… beyon…
 4 Partition            "[Part I: \"Yoncé\"] Let me hear you say, \"Hey,… beyon…
 5 Feeling Myself       "Feelin' myself, I'm feelin' myself, I'm feelin'… beyon…
 6 If I Were a Boy      "[Verse 1] I'd roll out of bed in the mornin'\nA… beyon…
 7 Part II (On the Run) "Who wants that perfect love story anyway, anywa… beyon…
 8 APESHIT              "Stack my money fast and go (Fast, fast, go)\nFa… beyon…
 9 Walk on Water        "I walk on water\nBut I ain't no Jesus\nI walk o… beyon…
10 Perfect Duet         "I found a love for me\nOh, darling, just dive r… beyon…
# ℹ 30 more rows
