Prediction w/ tidyModels - Classwork
…
Define a preprocessing recipe with various steps

tree_rec <- step_date(some_var1, features = c(“dow”, “month”, “year”)) %>% # Extract date features like day of week, month, and year from a date variable step_rm(some_var1) %>% # Remove the original date variable after extracting features step_dummy(all_nominal_predictors()) %>% # Convert categorical predictors into dummy (one-hot encoded) variables step_zv(all_predictors()) %>% # Remove any predictors with zero variance (i.e., predictors that are constant) step_normalize(all_numeric_predictors()) %>% # Normalize all numeric predictors to have mean 0 and standard deviation 1 step_pca(all_numeric_predictors()) # Apply Principal Component Analysis (PCA) to reduce dimensionality of numeric predictors

Build the workflow by combining the recipe and model

tree_wflow <- workflow() %>% add_formula(tip ~ .) %>% # Specify the formula for the target variable (tip) and predictors (all other columns) add_recipe(tree_rec) %>% # Add the preprocessing recipe defined above add_model(tree_spec) # Attach the specified model (e.g., decision tree model) to the workflow

How do we understand our new models?

Hint: augment() takes a fitted model and a dataset, and returns that dataset with extra columns containing predictions and residuals

predict(tree_fit, new_data = taxi_test) #predicted values based on our model

# A tibble: 2,000 × 1
   .pred_class
   <fct>      
 1 yes        
 2 yes        
 3 yes        
 4 yes        
 5 yes        
 6 yes        
 7 yes        
 8 yes        
 9 yes        
10 yes        
# ℹ 1,990 more rows

augment(tree_fit, new_data = taxi_test) #added predictions and residuals to our dataset

# A tibble: 2,000 × 10
   .pred_class .pred_yes .pred_no tip   distance company local dow   month  hour
   <fct>           <dbl>    <dbl> <fct>    <dbl> <fct>   <fct> <fct> <fct> <int>
 1 yes             0.964   0.0365 yes      17.7  other   no    Sun   Jan       6
 2 yes             0.828   0.172  yes       6.65 Taxica… no    Sun   Apr      11
 3 yes             0.916   0.0842 yes       1    other   no    Fri   Mar      17
 4 yes             0.916   0.0842 yes       1.1  Chicag… no    Sat   Mar      10
 5 yes             0.916   0.0842 yes       0.53 Taxica… yes   Wed   Apr       8
 6 yes             0.916   0.0842 no        1.07 Sun Ta… no    Fri   Feb      15
 7 yes             0.964   0.0365 yes      31.6  Taxica… no    Thu   Apr      19
 8 yes             0.916   0.0842 yes       0.63 Sun Ta… yes   Tue   Feb      17
 9 yes             0.828   0.172  yes       6    Taxi A… no    Wed   Mar      14
10 yes             0.964   0.0365 yes      18.0  other   no    Wed   Apr      20
# ℹ 1,990 more rows
…
attr(,"class")
[1] "stage_fit" "stage"    

Your turn!

For the fitted logistic regression model, use augment, then glance and tidy. What do you get?

What happens if you run logi_fit$fit? Does it look the same as tree_fit$fit? Why or why not?

# Your code here!

augment(logi_fit, taxi_test) #adds predictions/residuals to your data

# A tibble: 2,000 × 10
   .pred_class .pred_yes .pred_no tip   distance company local dow   month  hour
   <fct>           <dbl>    <dbl> <fct>    <dbl> <fct>   <fct> <fct> <fct> <int>
 1 yes             0.944   0.0563 yes      17.7  other   no    Sun   Jan       6
 2 yes             0.943   0.0571 yes       6.65 Taxica… no    Sun   Apr      11
 3 yes             0.911   0.0886 yes       1    other   no    Fri   Mar      17
 4 yes             0.949   0.0506 yes       1.1  Chicag… no    Sat   Mar      10
 5 yes             0.918   0.0818 yes       0.53 Taxica… yes   Wed   Apr       8
 6 yes             0.919   0.0806 no        1.07 Sun Ta… no    Fri   Feb      15
 7 yes             0.972   0.0277 yes      31.6  Taxica… no    Thu   Apr      19
 8 yes             0.909   0.0910 yes       0.63 Sun Ta… yes   Tue   Feb      17
 9 yes             0.922   0.0777 yes       6    Taxi A… no    Wed   Mar      14
10 yes             0.956   0.0436 yes      18.0  other   no    Wed   Apr      20
# ℹ 1,990 more rows
…
PART 4: Metrics for model performance

Evaluate the training data.

#Examine the model's confidence in its decisions

augment(tree_fit, new_data = taxi_train) %>% 
  relocate(tip, .pred_class, .pred_yes, .pred_no) #reorder data

# A tibble: 8,000 × 10
   tip   .pred_class .pred_yes .pred_no distance company local dow   month  hour
   <fct> <fct>           <dbl>    <dbl>    <dbl> <fct>   <fct> <fct> <fct> <int>
 1 yes   yes             0.964   0.0365    17.2  Chicag… no    Thu   Feb      16
 2 yes   yes             0.916   0.0842     0.88 City S… yes   Thu   Mar       8
 3 yes   yes             0.964   0.0365    18.1  other   no    Mon   Feb      18
 4 yes   yes             0.964   0.0365    20.7  Chicag… no    Mon   Apr       8
 5 yes   yes             0.860   0.140     12.2  Chicag… no    Sun   Mar      21
 6 yes   yes             0.916   0.0842     0.94 Sun Ta… yes   Sat   Apr      23
 7 yes   yes             0.964   0.0365    17.5  Flash … no    Fri   Mar      12
 8 yes   yes             0.916   0.0842     1.85 Taxica… no    Fri   Apr      12
 9 yes   yes             0.916   0.0842     1.47 City S… no    Tue   Mar      14
10 yes   yes             0.916   0.0842     0.53 Sun Ta… no    Tue   Mar      18
# ℹ 7,990 more rows
…
# A tibble: 1 × 3
  .metric .estimator .estimate
  <chr>   <chr>          <dbl>
1 roc_auc binary         0.611

Is our model doing well on training but poorly on new data?

# Here's our model performance on TRAINING data (used to create the model):

tree_fit %>%
  augment(taxi_train)

# A tibble: 8,000 × 10
   .pred_class .pred_yes .pred_no tip   distance company local dow   month  hour
   <fct>           <dbl>    <dbl> <fct>    <dbl> <fct>   <fct> <fct> <fct> <int>
 1 yes             0.964   0.0365 yes      17.2  Chicag… no    Thu   Feb      16
 2 yes             0.916   0.0842 yes       0.88 City S… yes   Thu   Mar       8
 3 yes             0.964   0.0365 yes      18.1  other   no    Mon   Feb      18
 4 yes             0.964   0.0365 yes      20.7  Chicag… no    Mon   Apr       8
 5 yes             0.860   0.140  yes      12.2  Chicag… no    Sun   Mar      21
 6 yes             0.916   0.0842 yes       0.94 Sun Ta… yes   Sat   Apr      23
 7 yes             0.964   0.0365 yes      17.5  Flash … no    Fri   Mar      12
 8 yes             0.916   0.0842 yes       1.85 Taxica… no    Fri   Apr      12
 9 yes             0.916   0.0842 yes       1.47 City S… no    Tue   Mar      14
10 yes             0.916   0.0842 yes       0.53 Sun Ta… no    Tue   Mar      18
# ℹ 7,990 more rows
…
