Data and visualisation
…
---

## Dataset terminology

- Each row is an **observation**
- Each column is a **variable**

.small[

```r
happy
```

```
## # A tibble: 143 × 12
##   Country   Region Happiness LifeExpectancy Footprint   HLY   HPI
##   <chr>     <chr>      <dbl>          <dbl>     <dbl> <dbl> <dbl>
## 1 Albania   Forme…       5.5           76.2       2.2  41.7  47.9
## 2 Algeria   Middl…       5.6           71.7       1.7  40.1  51.2
## 3 Angola    SubSa…       4.3           41.7       0.9  17.8  26.8
## 4 Argentina Latin…       7.1           74.8       2.5  53.4  59.0
## 5 Armenia   Forme…       5             71.7       1.4  36.1  48.3
## 6 Australia Weste…       7.9           80.9       7.8  63.7  36.6
## # … with 137 more rows, and 5 more variables: HPIRank <dbl>,
## #   GDPperCapita <dbl>, HDI <dbl>, Population <dbl>,
## #   HDI_group <ord>
```
…
