Lab 05 - Take a sad plot and make it better
…
It will have a row for each combination of year and faculty type. So, 5 x 11 = 55

To go from wide-format (how the data is now) to long-format conversion (what we want), we use a function you should already be familiar to you: pivot_longer().

Now go ahead and convert the data from wide to long. For your names_to = argument, name it “year.” Call the new dataframe “staff_long.”

HINT For selecting columns to pivot, you could write out the years into a character vector, but can you think of a simpler way? Nevertheless, whatever answer you come up with that generates the same output I have in the “Solution” dropdown will be considered correct.

WANT A SNEAK PEEK AT THE SOLUTION? If you want to see the final output, go ahead and click “Solution” below to open up a dropdown display. You can do this anytime where you see “Solution” in these instructions.

 Solution 

staff_long

## # A tibble: 55 × 3
##    faculty_type               year value
##    <chr>                     <dbl> <dbl>
##  1 Full-Time Tenured Faculty  1975  29  
##  2 Full-Time Tenured Faculty  1989  27.6
##  3 Full-Time Tenured Faculty  1993  25  
##  4 Full-Time Tenured Faculty  1995  24.8
##  5 Full-Time Tenured Faculty  1999  21.8
##  6 Full-Time Tenured Faculty  2001  20.3
##  7 Full-Time Tenured Faculty  2003  19.3
##  8 Full-Time Tenured Faculty  2005  17.8
##  9 Full-Time Tenured Faculty  2007  17.2
## 10 Full-Time Tenured Faculty  2009  16.8
## # ℹ 45 more rows
…
