Lab 04 - Lead exposure and personality
…
Exploring further: Geography

You have surely heard that “correlation is not causation” — so we can’t say whether there is any causal relationship between agreeableness and lead exposure. One reason is that an association between two variables could be confounded—e.g. there might be some other third variable that affects them both and that produces the association. We’ll talk about this more later in the course, but for now let’s briefly explore some possibilities by looking at another kind of visualization: a map.

One thing we might think could influence personality is geography. Without playing too much into broad stereotypes, there are many historical and cultural differences between people in Eastern Europe versus Western Europe. Maybe people in the East or West are more or less agreeable? Maybe they also happen to have more or less lead exposure?

The ggplot2 package includes a function called map_data() that loads data for plotting maps of different parts of the world. The code below loads data with latitude (lat) and longitude (long) points marking the boundaries of all the different nations of the world and then turns that data.frame object into a tibble.

map_data("world") %>% 
  as_tibble()

## # A tibble: 99,338 × 6
##     long   lat group order region subregion
##    <dbl> <dbl> <dbl> <int> <chr>  <chr>    
##  1 -69.9  12.5     1     1 Aruba  <NA>     
##  2 -69.9  12.4     1     2 Aruba  <NA>     
##  3 -69.9  12.4     1     3 Aruba  <NA>     
##  4 -70.0  12.5     1     4 Aruba  <NA>     
##  5 -70.1  12.5     1     5 Aruba  <NA>     
##  6 -70.1  12.6     1     6 Aruba  <NA>     
##  7 -70.0  12.6     1     7 Aruba  <NA>     
##  8 -70.0  12.6     1     8 Aruba  <NA>     
##  9 -69.9  12.5     1     9 Aruba  <NA>     
## 10 -69.9  12.5     1    10 Aruba  <NA>     
## # ℹ 99,328 more rows
…
